{
  "wikiTiddlersSubDir": "/home/richie/Documents/Love",
  "includeDirs": [
    "./templates",
    "./functions"
  ],
  "plugins": [
    "tiddlywiki/tiddlyweb",
    "tiddlywiki/filesystem",
    "tiddlywiki/highlight"
  ],
  "themes": [
    "tiddlywiki/vanilla",
    "tiddlywiki/snowwhite"
  ],
  "build": {
    "index": [
      "--rendertiddler",
      "$:/plugins/tiddlywiki/tiddlyweb/save/offline",
      "index.html",
      "text/plain"
    ]
  }
}